^C:\HOME\GALLA\FULCRUM\1C_SHARP\SAPER\SAPER\FORM1.RESX|C:\HOME\GALLA\FULCRUM\1C_SHARP\SAPER\SAPER\FORM2.RESX|C:\HOME\GALLA\FULCRUM\1C_SHARP\SAPER\SAPER\PROPERTIES\RESOURCES.RESX
C:\HOME\GALLA\FULCRUM\1C_SHARP\SAPER\SAPER\OBJ\DEBUG\WINDOWSFORMSAPPLICATION2.FORM1.RESOURCES
C:\HOME\GALLA\FULCRUM\1C_SHARP\SAPER\SAPER\OBJ\DEBUG\WINDOWSFORMSAPPLICATION2.FORM2.RESOURCES
C:\HOME\GALLA\FULCRUM\1C_SHARP\SAPER\SAPER\OBJ\DEBUG\WINDOWSFORMSAPPLICATION2.PROPERTIES.RESOURCES.RESOURCES
